<?xml version="1.0" encoding="UTF-8"?>
<svg width="1026px" height="1024px" viewBox="0 0 1026 1024" version="1.1" xmlns="http://www.w3.org/2000/svg" xmlns:xlink="http://www.w3.org/1999/xlink">
    <!-- Generator: Sketch 59.1 (86144) - https://sketch.com -->
    <title>Group</title>
    <desc>Created with Sketch.</desc>
    <g id="Page-1" stroke="none" stroke-width="1" fill="none" fill-rule="evenodd">
        <g id="Group" transform="translate(1.000000, 0.000000)">
            <path d="M1024,512 C1024,794.769792 794.769792,1024 512,1024 C229.230208,1024 3.46293121e-14,794.769792 0,512 L1024,512 Z" id="Combined-Shape" fill="#FFFFFF"></path>
            <path d="M512,0 C794.769792,-5.19439681e-14 1024,229.230208 1024,512 L0,512 C-3.46293121e-14,229.230208 229.230208,5.19439681e-14 512,0 Z" id="Combined-Shape" fill="#BE3B37"></path>
            <rect id="Rectangle" stroke="#979797" fill="#000000" x="0" y="475" width="1024" height="74"></rect>
            <g id="PokeVS-2" transform="translate(132.000000, 391.000000)" fill="#FFFFFF" fill-rule="nonzero">
                <path d="M0,31.8838957 L9.64721515,28.7115036 C14.883572,27.0000716 19.9145959,25.373649 24.740347,23.8322161 C32.4615489,21.3659236 40.5995011,19.0266076 49.1544477,16.8141981 C57.7093944,14.6017886 65.9017204,12.8427681 73.7316716,11.5370838 C79.749134,10.5215516 85.9115032,10.0137931 92.2189638,10.0137931 L97.3747835,10.0401204 C105.017363,10.12349 110.18614,10.4048633 112.881232,10.8842449 C117.811201,11.8272392 122.469227,13.3505147 126.85545,15.4541171 C131.241672,17.5577196 135.156589,20.3685256 138.600318,23.8866194 C142.044046,27.4047131 144.853362,31.5574523 147.028348,36.3449614 C147.898343,38.3034878 148.333333,40.3707902 148.333333,42.5469307 C148.333333,50.6711886 143.892803,60.6812847 135.011608,72.5775193 C126.130413,84.473754 117.213103,94.8465347 108.259409,103.696173 L104.560828,107.335651 C97.4410971,114.308163 91.9859497,119.442008 88.195259,122.737307 L107.770039,191.394196 L79.2778592,211.958621 L29.3621701,69.3133249 C29.265504,69.3133249 28.9271774,69.6195919 28.3471841,70.2321321 L19.8574347,79.6261137 C19.319684,80.209111 18.9354702,80.6160091 18.7047898,80.8468118 C18.4872912,80.8468118 17.7804312,79.2872679 16.5841887,76.1681332 L14.8812135,71.6364206 C14.2443299,69.9149152 13.5382201,67.9824722 12.7628805,65.8390821 L9.44924821,56.6628682 C8.35723168,53.6570958 7.20178014,50.497186 5.98288518,47.1831155 L3.51016435,40.5205653 C1.8467093,36.1168085 0.676662447,33.2379386 0,31.8838957 Z M71.6666667,62.4893885 L80.4166667,95.1310345 L82.23781,93.1816285 C85.9939111,89.1018502 90.432904,83.9362693 95.5548726,77.6847883 L96.8495935,76.0992951 C103.394342,68.0587138 106.666667,62.231224 106.666667,58.6166508 C106.666667,57.2150816 106.097567,56.4036589 104.95935,56.1823585 C101.758114,55.4446905 98.5924953,55.0758621 95.4623984,55.0758621 C86.0721075,55.0758621 78.1402763,57.5470128 71.6666667,62.4893885 Z M228.095031,87.2927089 C233.25344,90.0272796 237.449127,93.7152967 240.682214,98.3568708 C243.915302,102.998445 246.276511,108.21564 247.765911,114.008612 C249.255311,119.801584 250,125.828344 250,132.089072 C250,137.270364 249.582248,142.271675 248.746731,147.093155 C247.911213,151.914635 246.766935,156.340255 245.313862,160.370149 C243.860789,164.400043 242.153454,167.818205 240.191805,170.624738 C235.614624,177.389203 230.710575,183.218069 225.479512,188.111511 C220.248448,193.004954 214.908484,196.944836 209.459459,199.931275 C204.010435,202.917714 198.615981,205.112534 193.275937,206.5158 C187.935893,207.919067 182.650418,208.62069 177.419355,208.62069 C171.243794,208.62069 165.377098,207.667202 159.819093,205.760199 C154.261088,203.853196 149.520508,201.35254 145.59721,198.258157 C139.131034,192.932941 134.08168,185.7548 130.448997,176.72352 C126.816314,167.692241 125,158.139377 125,148.064642 C125,130.721707 130.049354,116.725232 140.148213,106.074798 C148.793998,96.9355751 157.730265,90.0452797 166.95728,85.4037056 C176.184295,80.7621315 185.629129,78.4413793 195.292066,78.4413793 C200.959052,78.4413793 206.407995,79.1430021 211.639058,80.5462687 C216.870122,81.9495352 222.355391,84.1983262 228.095031,87.2927089 Z M220.366876,104.175638 C219.13929,109.671239 216.485578,114.515972 212.40566,118.709983 C208.325742,122.903995 204.336148,125.000969 200.436758,125.000969 C198.487062,125.000969 196.754026,124.494803 195.237596,123.482455 C193.071268,121.747002 191.98812,118.710005 191.98812,114.371373 C191.98812,111.045088 193.08932,107.755008 195.291754,104.501034 C197.494188,101.24706 200.978313,98.680074 205.744235,96.8 C200.978313,96.8 196.374935,97.7038682 191.933962,99.5116316 C187.49299,101.319395 183.68392,103.651375 180.506639,106.507641 C177.329358,109.363907 174.78396,112.581678 172.87037,116.16105 C170.956781,119.740421 170,123.337817 170,126.953343 C170,133.678223 173.105024,139.029123 179.315164,143.006203 C185.092039,146.69404 190.579988,148.537931 195.779175,148.537931 C200.906152,148.537931 205.455373,146.820582 209.426974,143.385831 C213.398576,139.95108 216.431389,135.540204 218.525507,130.153069 C220.619624,124.765934 221.666667,119.433112 221.666667,114.154442 C221.666667,110.538915 221.233408,107.212681 220.366876,104.175638 Z M228.674983,23.1355476 L284.05372,0 L292.120701,125.453321 L337.688245,100.579892 L385,107.640036 L323.298494,154.780072 L381.402562,198.444345 L384.018881,242 L298.334457,180.631059 L301.059789,233.962298 L249.169476,234.939856 L239.358283,46.2710952 L223.333333,49.8554758 L228.674983,23.1355476 Z M455.588814,144.252477 L481.666667,175.680581 C479.574657,181.728631 474.615226,187.272594 466.788224,192.312636 C458.961222,197.352678 449.655525,201.330651 438.870854,204.246675 C428.086184,207.162699 417.319709,208.62069 406.571107,208.62069 C397.048856,208.62069 388.554703,207.360698 381.088392,204.840677 C373.622082,202.320656 367.869141,198.504682 363.829399,193.392639 C356.831987,184.608566 353.333333,173.376642 353.333333,159.696528 C353.333333,148.896438 355.299072,138.258509 359.230607,127.782422 C363.162143,117.306335 367.328065,109.980384 371.728499,105.80435 C376.994593,100.836309 382.711464,96.6963362 388.879286,93.3843087 C395.047108,90.0722812 401.449283,87.5882978 408.086003,85.9322841 C414.722724,84.2762703 421.539688,83.4482759 428.537099,83.4482759 C437.698659,83.4482759 446.409224,84.9062661 454.669056,87.8222903 C462.928887,90.7383145 470.16064,94.9682862 476.364531,100.512332 L416.958966,171.252566 C422.225059,171.252566 427.220559,170.154573 431.945616,167.958555 C436.670672,165.762537 441.016937,162.630558 444.984542,158.562524 C448.952147,154.49449 452.486869,149.724522 455.588814,144.252477 Z M426.666667,119.506173 C423.122928,117.720439 419.506922,116.827586 415.81854,116.827586 C411.913195,116.827586 408.134469,117.613297 404.482249,119.184742 C401.162048,120.613329 398.723481,122.278023 397.166489,124.178865 L396.725838,124.756203 C392.241924,130.470549 390,136.756236 390,143.613453 C390,146.113479 390.25312,148.506326 390.759369,150.792065 L391.106509,152.266361 C391.627219,154.369229 392.379351,157.020655 393.362919,160.22069 L426.666667,119.506173 Z M467.896458,38.6942851 L449.306085,34.244267 L448.333333,6.67586207 L513.940054,11.1258802 L554.579473,140.067868 L583.870118,19.1576202 L646.666667,22.7393421 L581.168029,223.641379 L532.530427,222.773083 L467.896458,38.6942851 Z M613.563218,35.9560216 C621.650497,18.6611161 638.510777,10.0137931 664.144562,10.0137931 C677.64743,10.0137931 691.872162,11.9212908 706.819187,15.7363435 L711.386686,16.9239127 C725.339366,20.6157809 741.543674,25.4700991 760,31.4869822 L759.239631,33.3015067 C757.872584,36.6670096 755.73067,42.3719197 752.813862,50.4163138 L748.08276,63.5649663 C743.990156,74.8799815 741.752745,80.5374142 741.370469,80.5374142 L741.09744,80.3097499 C740.067137,79.5397994 736.854677,77.7081844 731.459991,74.8148638 C725.430636,71.5811525 718.85982,68.4383229 711.747347,65.3862807 C705.109039,62.5377081 699.618751,60.7969369 695.276342,60.1639239 L693.635518,59.9461968 C691.456093,59.6015817 687.369299,58.6128304 681.375054,56.9799228 L680.22878,56.6662039 C672.827476,54.6315092 667.32171,53.6141771 663.711317,53.6141771 C660.389756,53.6141771 657.86252,54.2681763 656.129531,55.5761943 C653.16901,57.6835568 651.688771,60.1542205 651.688771,62.9882596 C651.688771,65.6042957 652.916286,68.456459 655.371353,71.544835 C657.82642,74.6332109 661.039621,77.7033739 665.011052,80.7554161 C668.982484,83.8074582 673.387096,86.786788 678.225022,89.6934948 C682.095363,92.0188602 685.919445,94.1581713 689.697341,96.1114682 L692.522104,97.5415639 C702.197956,102.33763 710.591992,107.80579 717.704465,113.946208 C724.816938,120.086626 730.358807,126.208786 734.330239,132.31287 C738.30167,138.416954 741.207993,144.61178 743.049293,150.897534 C744.890593,157.183287 745.811229,163.12378 745.811229,168.719191 C745.811229,175.331949 744.619817,181.363275 742.236958,186.81335 C737.83228,196.187479 731.369774,202.999971 722.849248,207.25103 C714.328723,211.502089 704.147569,213.627586 692.305482,213.627586 C685.517944,213.627586 677.882079,212.919087 669.397657,211.502067 C660.913235,210.085048 652.717767,208.304717 644.811008,206.16102 C638.033786,204.323567 630.938351,202.245892 623.524548,199.927949 L615.11134,197.253566 C608.25013,195.056429 602.101948,193.06605 596.666667,191.282389 L597.104144,190.33459 C598.119844,188.057776 599.576464,184.329842 601.474033,179.150716 L603.999341,172.185956 C604.880271,169.739977 605.703433,167.436432 606.468831,165.27531 L609.339083,157.110581 C610.3545,154.249306 611.313501,151.615131 612.216096,149.208023 L613.284259,146.407415 C614.375237,143.623765 615.045878,142.231957 615.296198,142.231957 C617.24581,143.843623 623.626715,147.296514 634.439097,152.59073 L635.658709,153.186554 C647.211965,158.818298 656.1295,161.997461 662.411583,162.724138 C664.557187,162.926569 668.10361,163.692905 673.050946,165.023167 L682.334354,167.537621 C683.717845,167.903864 684.821172,168.188718 685.644341,168.392188 C687.702265,168.900862 690.139243,169.155195 692.955349,169.155195 C696.27691,169.155195 698.804147,168.501195 700.537135,167.193177 C703.786488,164.795144 705.411141,162.251814 705.411141,159.56311 C705.411141,153.779618 698.302866,147.037842 684.086109,139.337589 L682.774094,138.634926 C673.531489,133.766192 663.260077,126.9537 651.959549,118.197246 C640.659021,109.440792 630.766694,99.3038037 622.282272,87.785978 C613.79785,76.2681523 609.555703,64.768666 609.555703,53.2871742 C609.555703,47.4010929 610.891528,41.6240998 613.563218,35.9560216 Z" id="PokeVS" stroke="#000000" stroke-width="55"></path>
                <path d="M0,31.8838957 L9.64721515,28.7115036 C14.883572,27.0000716 19.9145959,25.373649 24.740347,23.8322161 C32.4615489,21.3659236 40.5995011,19.0266076 49.1544477,16.8141981 C57.7093944,14.6017886 65.9017204,12.8427681 73.7316716,11.5370838 C79.749134,10.5215516 85.9115032,10.0137931 92.2189638,10.0137931 L97.3747835,10.0401204 C105.017363,10.12349 110.18614,10.4048633 112.881232,10.8842449 C117.811201,11.8272392 122.469227,13.3505147 126.85545,15.4541171 C131.241672,17.5577196 135.156589,20.3685256 138.600318,23.8866194 C142.044046,27.4047131 144.853362,31.5574523 147.028348,36.3449614 C147.898343,38.3034878 148.333333,40.3707902 148.333333,42.5469307 C148.333333,50.6711886 143.892803,60.6812847 135.011608,72.5775193 C126.130413,84.473754 117.213103,94.8465347 108.259409,103.696173 L104.560828,107.335651 C97.4410971,114.308163 91.9859497,119.442008 88.195259,122.737307 L107.770039,191.394196 L79.2778592,211.958621 L29.3621701,69.3133249 C29.265504,69.3133249 28.9271774,69.6195919 28.3471841,70.2321321 L19.8574347,79.6261137 C19.319684,80.209111 18.9354702,80.6160091 18.7047898,80.8468118 C18.4872912,80.8468118 17.7804312,79.2872679 16.5841887,76.1681332 L14.8812135,71.6364206 C14.2443299,69.9149152 13.5382201,67.9824722 12.7628805,65.8390821 L9.44924821,56.6628682 C8.35723168,53.6570958 7.20178014,50.497186 5.98288518,47.1831155 L3.51016435,40.5205653 C1.8467093,36.1168085 0.676662447,33.2379386 0,31.8838957 Z M71.6666667,62.4893885 L80.4166667,95.1310345 L82.23781,93.1816285 C85.9939111,89.1018502 90.432904,83.9362693 95.5548726,77.6847883 L96.8495935,76.0992951 C103.394342,68.0587138 106.666667,62.231224 106.666667,58.6166508 C106.666667,57.2150816 106.097567,56.4036589 104.95935,56.1823585 C101.758114,55.4446905 98.5924953,55.0758621 95.4623984,55.0758621 C86.0721075,55.0758621 78.1402763,57.5470128 71.6666667,62.4893885 Z M228.095031,87.2927089 C233.25344,90.0272796 237.449127,93.7152967 240.682214,98.3568708 C243.915302,102.998445 246.276511,108.21564 247.765911,114.008612 C249.255311,119.801584 250,125.828344 250,132.089072 C250,137.270364 249.582248,142.271675 248.746731,147.093155 C247.911213,151.914635 246.766935,156.340255 245.313862,160.370149 C243.860789,164.400043 242.153454,167.818205 240.191805,170.624738 C235.614624,177.389203 230.710575,183.218069 225.479512,188.111511 C220.248448,193.004954 214.908484,196.944836 209.459459,199.931275 C204.010435,202.917714 198.615981,205.112534 193.275937,206.5158 C187.935893,207.919067 182.650418,208.62069 177.419355,208.62069 C171.243794,208.62069 165.377098,207.667202 159.819093,205.760199 C154.261088,203.853196 149.520508,201.35254 145.59721,198.258157 C139.131034,192.932941 134.08168,185.7548 130.448997,176.72352 C126.816314,167.692241 125,158.139377 125,148.064642 C125,130.721707 130.049354,116.725232 140.148213,106.074798 C148.793998,96.9355751 157.730265,90.0452797 166.95728,85.4037056 C176.184295,80.7621315 185.629129,78.4413793 195.292066,78.4413793 C200.959052,78.4413793 206.407995,79.1430021 211.639058,80.5462687 C216.870122,81.9495352 222.355391,84.1983262 228.095031,87.2927089 Z M220.366876,104.175638 C219.13929,109.671239 216.485578,114.515972 212.40566,118.709983 C208.325742,122.903995 204.336148,125.000969 200.436758,125.000969 C198.487062,125.000969 196.754026,124.494803 195.237596,123.482455 C193.071268,121.747002 191.98812,118.710005 191.98812,114.371373 C191.98812,111.045088 193.08932,107.755008 195.291754,104.501034 C197.494188,101.24706 200.978313,98.680074 205.744235,96.8 C200.978313,96.8 196.374935,97.7038682 191.933962,99.5116316 C187.49299,101.319395 183.68392,103.651375 180.506639,106.507641 C177.329358,109.363907 174.78396,112.581678 172.87037,116.16105 C170.956781,119.740421 170,123.337817 170,126.953343 C170,133.678223 173.105024,139.029123 179.315164,143.006203 C185.092039,146.69404 190.579988,148.537931 195.779175,148.537931 C200.906152,148.537931 205.455373,146.820582 209.426974,143.385831 C213.398576,139.95108 216.431389,135.540204 218.525507,130.153069 C220.619624,124.765934 221.666667,119.433112 221.666667,114.154442 C221.666667,110.538915 221.233408,107.212681 220.366876,104.175638 Z M228.674983,23.1355476 L284.05372,0 L292.120701,125.453321 L337.688245,100.579892 L385,107.640036 L323.298494,154.780072 L381.402562,198.444345 L384.018881,242 L298.334457,180.631059 L301.059789,233.962298 L249.169476,234.939856 L239.358283,46.2710952 L223.333333,49.8554758 L228.674983,23.1355476 Z M455.588814,144.252477 L481.666667,175.680581 C479.574657,181.728631 474.615226,187.272594 466.788224,192.312636 C458.961222,197.352678 449.655525,201.330651 438.870854,204.246675 C428.086184,207.162699 417.319709,208.62069 406.571107,208.62069 C397.048856,208.62069 388.554703,207.360698 381.088392,204.840677 C373.622082,202.320656 367.869141,198.504682 363.829399,193.392639 C356.831987,184.608566 353.333333,173.376642 353.333333,159.696528 C353.333333,148.896438 355.299072,138.258509 359.230607,127.782422 C363.162143,117.306335 367.328065,109.980384 371.728499,105.80435 C376.994593,100.836309 382.711464,96.6963362 388.879286,93.3843087 C395.047108,90.0722812 401.449283,87.5882978 408.086003,85.9322841 C414.722724,84.2762703 421.539688,83.4482759 428.537099,83.4482759 C437.698659,83.4482759 446.409224,84.9062661 454.669056,87.8222903 C462.928887,90.7383145 470.16064,94.9682862 476.364531,100.512332 L416.958966,171.252566 C422.225059,171.252566 427.220559,170.154573 431.945616,167.958555 C436.670672,165.762537 441.016937,162.630558 444.984542,158.562524 C448.952147,154.49449 452.486869,149.724522 455.588814,144.252477 Z M426.666667,119.506173 C423.122928,117.720439 419.506922,116.827586 415.81854,116.827586 C411.913195,116.827586 408.134469,117.613297 404.482249,119.184742 C401.162048,120.613329 398.723481,122.278023 397.166489,124.178865 L396.725838,124.756203 C392.241924,130.470549 390,136.756236 390,143.613453 C390,146.113479 390.25312,148.506326 390.759369,150.792065 L391.106509,152.266361 C391.627219,154.369229 392.379351,157.020655 393.362919,160.22069 L426.666667,119.506173 Z M467.896458,38.6942851 L449.306085,34.244267 L448.333333,6.67586207 L513.940054,11.1258802 L554.579473,140.067868 L583.870118,19.1576202 L646.666667,22.7393421 L581.168029,223.641379 L532.530427,222.773083 L467.896458,38.6942851 Z M613.563218,35.9560216 C621.650497,18.6611161 638.510777,10.0137931 664.144562,10.0137931 C677.64743,10.0137931 691.872162,11.9212908 706.819187,15.7363435 L711.386686,16.9239127 C725.339366,20.6157809 741.543674,25.4700991 760,31.4869822 L759.239631,33.3015067 C757.872584,36.6670096 755.73067,42.3719197 752.813862,50.4163138 L748.08276,63.5649663 C743.990156,74.8799815 741.752745,80.5374142 741.370469,80.5374142 L741.09744,80.3097499 C740.067137,79.5397994 736.854677,77.7081844 731.459991,74.8148638 C725.430636,71.5811525 718.85982,68.4383229 711.747347,65.3862807 C705.109039,62.5377081 699.618751,60.7969369 695.276342,60.1639239 L693.635518,59.9461968 C691.456093,59.6015817 687.369299,58.6128304 681.375054,56.9799228 L680.22878,56.6662039 C672.827476,54.6315092 667.32171,53.6141771 663.711317,53.6141771 C660.389756,53.6141771 657.86252,54.2681763 656.129531,55.5761943 C653.16901,57.6835568 651.688771,60.1542205 651.688771,62.9882596 C651.688771,65.6042957 652.916286,68.456459 655.371353,71.544835 C657.82642,74.6332109 661.039621,77.7033739 665.011052,80.7554161 C668.982484,83.8074582 673.387096,86.786788 678.225022,89.6934948 C682.095363,92.0188602 685.919445,94.1581713 689.697341,96.1114682 L692.522104,97.5415639 C702.197956,102.33763 710.591992,107.80579 717.704465,113.946208 C724.816938,120.086626 730.358807,126.208786 734.330239,132.31287 C738.30167,138.416954 741.207993,144.61178 743.049293,150.897534 C744.890593,157.183287 745.811229,163.12378 745.811229,168.719191 C745.811229,175.331949 744.619817,181.363275 742.236958,186.81335 C737.83228,196.187479 731.369774,202.999971 722.849248,207.25103 C714.328723,211.502089 704.147569,213.627586 692.305482,213.627586 C685.517944,213.627586 677.882079,212.919087 669.397657,211.502067 C660.913235,210.085048 652.717767,208.304717 644.811008,206.16102 C638.033786,204.323567 630.938351,202.245892 623.524548,199.927949 L615.11134,197.253566 C608.25013,195.056429 602.101948,193.06605 596.666667,191.282389 L597.104144,190.33459 C598.119844,188.057776 599.576464,184.329842 601.474033,179.150716 L603.999341,172.185956 C604.880271,169.739977 605.703433,167.436432 606.468831,165.27531 L609.339083,157.110581 C610.3545,154.249306 611.313501,151.615131 612.216096,149.208023 L613.284259,146.407415 C614.375237,143.623765 615.045878,142.231957 615.296198,142.231957 C617.24581,143.843623 623.626715,147.296514 634.439097,152.59073 L635.658709,153.186554 C647.211965,158.818298 656.1295,161.997461 662.411583,162.724138 C664.557187,162.926569 668.10361,163.692905 673.050946,165.023167 L682.334354,167.537621 C683.717845,167.903864 684.821172,168.188718 685.644341,168.392188 C687.702265,168.900862 690.139243,169.155195 692.955349,169.155195 C696.27691,169.155195 698.804147,168.501195 700.537135,167.193177 C703.786488,164.795144 705.411141,162.251814 705.411141,159.56311 C705.411141,153.779618 698.302866,147.037842 684.086109,139.337589 L682.774094,138.634926 C673.531489,133.766192 663.260077,126.9537 651.959549,118.197246 C640.659021,109.440792 630.766694,99.3038037 622.282272,87.785978 C613.79785,76.2681523 609.555703,64.768666 609.555703,53.2871742 C609.555703,47.4010929 610.891528,41.6240998 613.563218,35.9560216 Z" id="PokeVS-Copy"></path>
            </g>
        </g>
    </g>
</svg>